[
    {
        "pk": 1,
        "model": "courses.coursetype",
        "fields": {
            "code": "I",
            "description": "Instructor Led"
        }
    },
    {
        "pk": 2,
        "model": "courses.coursetype",
        "fields": {
            "code": "WD",
            "description": "Web-Based Domestic"
        }
    },
    {
        "pk": 3,
        "model": "courses.coursetype",
        "fields": {
            "code": "WI",
            "description": "Web-Base International"
        }
    },

    {
        "pk": 1,
        "model": "courses.documenttype",
        "fields": {
            "code": "PG",
            "name": "Participant Guide"
        }
    },
    {
        "pk": 2,
        "model": "courses.documenttype",
        "fields": {
            "code": "IG",
            "name": "Instructor Guide"
        }
    },
    {
        "pk": 3,
        "model": "courses.documenttype",
        "fields": {
            "code": "CDD",
            "name": "Course Design Document"
        }
    },
    {
        "pk": 4,
        "model": "courses.documenttype",
        "fields": {
            "code": "DMH",
            "name": "DMHA"
        }
    },

    {
        "pk": 1,
        "model": "courses.testtype",
        "fields": {
            "type": "PRE"
        }
    },
    {
        "pk": 2,
        "model": "courses.testtype",
        "fields": {
            "type": "POST"
        }
    },

    {
        "pk": 1,
        "model": "courses.trainingtype",
        "fields": {
            "code": "AW",
            "description": "Awareness"
        }
    },
    {
        "pk": 2,
        "model": "courses.trainingtype",
        "fields": {
            "code": "PE",
            "description": "Performance"
        }
    },
    {
        "pk": 3,
        "model": "courses.trainingtype",
        "fields": {
            "code": "MA",
            "description": "Management"
        }
    },

    {
        "pk": 1,
        "model": "courses.trainingprovider",
        "fields": {
            "phone": "8089560600",
            "provider": "UH-NDPTC",
            "email": "ndptc@hawaii.edu"
        }
    }
]